Messing with models: Market basket analysis of online merchandise store data – Collin K. Berke, Ph.D.
…
# All mugs tidy way
mdl_ga_rules |>
  as("data.frame") |>
  tibble() |>
  filter(str_detect(rules, "Mug"))

# A tibble: 82 × 6
   rules                                                     support confidence coverage  lift count
   <chr>                                                       <dbl>      <dbl>    <dbl> <dbl> <int>
 1 {Google Austin Campus Tote} => {Google Austin Campus Mug} 0.00225      0.615  0.00365  36.5     8
 2 {Google Austin Campus Mug} => {Google Austin Campus Tote} 0.00225      0.133  0.0168   36.5     8
 3 {Google Kirkland Campus Mug} => {Google Seattle Campus M… 0.00337      0.923  0.00365  73.1    12
 4 {Google Seattle Campus Mug} => {Google Kirkland Campus M… 0.00337      0.267  0.0126   73.1    12
 5 {Google Kirkland Campus Mug} => {Google NYC Campus Mug}   0.00225      0.615  0.00365  27.1     8
 6 {Google Boulder Campus Mug} => {Google Cambridge Campus … 0.00225      0.348  0.00646  38.7     8
 7 {Google Cambridge Campus Mug} => {Google Boulder Campus … 0.00225      0.25   0.00898  38.7     8
 8 {Google Boulder Campus Mug} => {Google NYC Campus Mug}    0.00253      0.391  0.00646  17.2     9
 9 {Google NYC Campus Mug} => {Google Boulder Campus Mug}    0.00253      0.111  0.0227   17.2     9
10 {Google NYC Campus Bottle} => {Google NYC Campus Mug}     0.00225      0.296  0.00758  13.0     8
# ℹ 72 more rows
…
