Collin K. Berke, Ph.D. - Messing around with tidymodels: Learning how to fit a binary classification model using NCAA Big Ten women’s volleyball data
…
data_vball_split

<Training/Testing/Total>
<1243/312/1555>

You’ll notice this doesn’t print out any data. Rather, information about the split is printed to the console. initial_split() only creates an object with the information on how the split is to be performed. To perform the split, we need to use rsample’s training() and testing() functions. Simply, we do the following:

data_vball_train <- training(data_vball_split)
data_vball_test <- testing(data_vball_split)

When these two objects are printed, you’ll see two tibbles. The first tibble is the training data set. The second tibble is the testing data set.

data_vball_train

# A tibble: 1,243 × 27
   date       team_name    opponent w_l   set_wins set_loss     s kills errors total_attacks hit_pct
   <date>     <chr>        <chr>    <fct>    <dbl>    <dbl> <dbl> <dbl>  <dbl>         <dbl>   <dbl>
 1 2021-01-29 Illinois Fi… Wiscons… loss         0        3     3    36     19           101   0.168
 2 2021-01-30 Illinois Fi… Wiscons… loss         1        3     4    48     22           129   0.202
 3 2021-02-06 Illinois Fi… @ Penn … loss         2        3     5    55     31           167   0.144
 4 2021-02-19 Illinois Fi… Ohio St. loss         1        3     4    47     29           137   0.131
 5 2021-02-20 Illinois Fi… Ohio St. loss         2        3     5    59     29           178   0.169
 6 2021-03-05 Illinois Fi… Nebraska loss         0        3     3    36     19           111   0.153
 7 2021-03-06 Illinois Fi… Nebraska loss         0        3     3    41     25           118   0.136
 8 2021-03-12 Illinois Fi… @ Minne… loss         2        3     5    71     33           185   0.205
 9 2021-03-13 Illinois Fi… @ Minne… loss         0        3     3    32     29           124   0.024
10 2021-04-02 Illinois Fi… @ Purdue loss         0        3     3    33     22           127   0.087
# ℹ 1,233 more rows
# ℹ 16 more variables: assists <dbl>, aces <dbl>, serr <dbl>, digs <dbl>, block_solos <dbl>,
#   block_assists <dbl>, opp_kills <dbl>, opp_errors <dbl>, opp_total_attacks <dbl>,
#   opp_hit_pct <dbl>, opp_assists <dbl>, opp_aces <dbl>, opp_serr <dbl>, opp_digs <dbl>,
#   opp_block_solos <dbl>, opp_block_assists <dbl>

data_vball_test

# A tibble: 312 × 27
   date       team_name    opponent w_l   set_wins set_loss     s kills errors total_attacks hit_pct
   <date>     <chr>        <chr>    <fct>    <dbl>    <dbl> <dbl> <dbl>  <dbl>         <dbl>   <dbl>
 1 2021-01-23 Illinois Fi… @ Iowa   win          3        1     4    49     21           122   0.23 
 2 2021-02-05 Illinois Fi… @ Penn … loss         1        3     4    49     19           112   0.268
 3 2021-03-19 Illinois Fi… Maryland win          3        1     4    51     34           162   0.105
 4 2021-08-27 Illinois Fi… UC Sant… win          3        2     5    63     33           178   0.169
 5 2021-09-10 Illinois Fi… SMU @ O… win          3        0     3    41     11            98   0.306
 6 2021-09-17 Illinois Fi… @ Illin… win          3        0     3    43     10            88   0.375
 7 2021-09-18 Illinois Fi… North T… win          3        0     3    40     17           102   0.225
 8 2021-09-25 Illinois Fi… Northwe… win          3        2     5    65     19           137   0.336
 9 2021-10-03 Illinois Fi… Wiscons… loss         1        3     4    48     20           142   0.197
10 2021-10-23 Illinois Fi… Michigan win          3        1     4    55     21           155   0.219
# ℹ 302 more rows
# ℹ 16 more variables: assists <dbl>, aces <dbl>, serr <dbl>, digs <dbl>, block_solos <dbl>,
#   block_assists <dbl>, opp_kills <dbl>, opp_errors <dbl>, opp_total_attacks <dbl>,
#   opp_hit_pct <dbl>, opp_assists <dbl>, opp_aces <dbl>, opp_serr <dbl>, opp_digs <dbl>,
#   opp_block_solos <dbl>, opp_block_assists <dbl>
…
Before transitioning to model assessment, let’s explore the predictions for both models using the augment() function again. According to the docs,

Augment accepts a model object and a dataset and adds information about each observation in the dataset.

augment() produces new columns from the original data set to which makes it easy to examine model predictions. For instance, we can create a data set with the .pred_class, .pred_win, and .pred_loss columns. augment() also makes a guarantee that a tibble with the same number of rows as the passed data set will be returned, and all new column names will be prefixed with a ..

Here we’ll pipe the tibble returned from augment() to the relocate() function. This will make it easier to view the variables we are interested in further examining by moving these columns to the left of the tibble.

augment(log_reg_fit, data_vball_train) |>
  relocate(w_l, .pred_class, .pred_win, .pred_loss)

# A tibble: 1,243 × 30
   w_l   .pred_class .pred_win .pred_loss date       team_name      opponent set_wins set_loss     s
   <fct> <fct>           <dbl>      <dbl> <date>     <chr>          <chr>       <dbl>    <dbl> <dbl>
 1 loss  loss          0.0616       0.938 2021-01-29 Illinois Figh… Wiscons…        0        3     3
 2 loss  loss          0.297        0.703 2021-01-30 Illinois Figh… Wiscons…        1        3     4
 3 loss  loss          0.138        0.862 2021-02-06 Illinois Figh… @ Penn …        2        3     5
 4 loss  loss          0.0572       0.943 2021-02-19 Illinois Figh… Ohio St.        1        3     4
 5 loss  loss          0.199        0.801 2021-02-20 Illinois Figh… Ohio St.        2        3     5
 6 loss  loss          0.0787       0.921 2021-03-05 Illinois Figh… Nebraska        0        3     3
 7 loss  loss          0.0281       0.972 2021-03-06 Illinois Figh… Nebraska        0        3     3
 8 loss  win           0.636        0.364 2021-03-12 Illinois Figh… @ Minne…        2        3     5
 9 loss  loss          0.00129      0.999 2021-03-13 Illinois Figh… @ Minne…        0        3     3
10 loss  loss          0.0114       0.989 2021-04-02 Illinois Figh… @ Purdue        0        3     3
# ℹ 1,233 more rows
# ℹ 20 more variables: kills <dbl>, errors <dbl>, total_attacks <dbl>, hit_pct <dbl>,
#   assists <dbl>, aces <dbl>, serr <dbl>, digs <dbl>, block_solos <dbl>, block_assists <dbl>,
#   opp_kills <dbl>, opp_errors <dbl>, opp_total_attacks <dbl>, opp_hit_pct <dbl>,
#   opp_assists <dbl>, opp_aces <dbl>, opp_serr <dbl>, opp_digs <dbl>, opp_block_solos <dbl>,
#   opp_block_assists <dbl>

augment(dt_fit, data_vball_train) |>
  relocate(w_l, .pred_class, .pred_win, .pred_loss)

# A tibble: 1,243 × 30
   w_l   .pred_class .pred_win .pred_loss date       team_name      opponent set_wins set_loss     s
   <fct> <fct>           <dbl>      <dbl> <date>     <chr>          <chr>       <dbl>    <dbl> <dbl>
 1 loss  loss            0.131      0.869 2021-01-29 Illinois Figh… Wiscons…        0        3     3
 2 loss  loss            0.131      0.869 2021-01-30 Illinois Figh… Wiscons…        1        3     4
 3 loss  loss            0.131      0.869 2021-02-06 Illinois Figh… @ Penn …        2        3     5
 4 loss  loss            0.131      0.869 2021-02-19 Illinois Figh… Ohio St.        1        3     4
 5 loss  loss            0.131      0.869 2021-02-20 Illinois Figh… Ohio St.        2        3     5
 6 loss  loss            0.131      0.869 2021-03-05 Illinois Figh… Nebraska        0        3     3
 7 loss  loss            0.131      0.869 2021-03-06 Illinois Figh… Nebraska        0        3     3
 8 loss  win             0.603      0.397 2021-03-12 Illinois Figh… @ Minne…        2        3     5
 9 loss  loss            0.131      0.869 2021-03-13 Illinois Figh… @ Minne…        0        3     3
10 loss  loss            0.131      0.869 2021-04-02 Illinois Figh… @ Purdue        0        3     3
# ℹ 1,233 more rows
# ℹ 20 more variables: kills <dbl>, errors <dbl>, total_attacks <dbl>, hit_pct <dbl>,
#   assists <dbl>, aces <dbl>, serr <dbl>, digs <dbl>, block_solos <dbl>, block_assists <dbl>,
#   opp_kills <dbl>, opp_errors <dbl>, opp_total_attacks <dbl>, opp_hit_pct <dbl>,
#   opp_assists <dbl>, opp_aces <dbl>, opp_serr <dbl>, opp_digs <dbl>, opp_block_solos <dbl>,
#   opp_block_assists <dbl>
…
Now it’s much easier to make comparisons, and we write less code for the same amount of information. A big win!

ROC curves and AUC estimates

Receiver operating characteristic (ROC) curves visually summarise classification model specificity and sensitivity using different threshold values. From this curve, an area under the curve (AUC) metric can be calculated. The AUC is a useful summary metric and can be used to compare the fit of two or more models. Again, @StatQuest has a pretty good video explaining the fundamentals of ROC curves and AUC estimates.

Being a useful way to summarise model performance, the yardstick package makes several functions available to calculate both the ROC curve and AUC metric. An autoplot() method is also available to easily plot the ROC curve for us.

Let’s take a look at how this is done with our logistic regression model. Here’s the code:

augment(log_reg_fit, new_data = data_vball_train) |>
  roc_curve(truth = w_l, .pred_loss)

# A tibble: 1,245 × 3
     .threshold specificity sensitivity
          <dbl>       <dbl>       <dbl>
 1 -Inf             0                 1
 2    0.0000835     0                 1
 3    0.000181      0.00143           1
 4    0.000405      0.00285           1
 5    0.000415      0.00428           1
 6    0.000496      0.00571           1
 7    0.000824      0.00713           1
 8    0.000839      0.00856           1
 9    0.000922      0.00999           1
10    0.000979      0.0114            1
# ℹ 1,235 more rows
…
