Collin K. Berke, Ph.D. - 30 day tidymodels recipes challenge
…
Take note, though, the Debt variable has not been centered yet, and we are still working with a recipe object.

We then apply the centering transformation to the data by piping the prepped recipe to bake(). We can apply the preprocessing to the training data by passing the NULL to the new_data argument. bake() returns a tibble with our transformed variable using our training data.

credit_baked <- recipe(
  Status ~ Debt + Income + Assets, 
  data = credit_train
) |>
  step_center(Debt) |>
  prep() |>
  bake(new_data = NULL)

credit_baked

# A tibble: 3,563 × 4
    Debt Income Assets Status
   <dbl>  <int>  <int> <fct> 
 1 -337.     80      0 bad   
 2 -337.     50      0 bad   
 3 -337.    107      0 bad   
 4  163.    112   2000 bad   
 5 -337.     85   5000 bad   
 6   NA      NA     NA bad   
 7 -337.     90      0 bad   
 8 -337.     71   3000 bad   
 9 -337.    128      0 bad   
10 -337.    100      0 bad   
# ℹ 3,553 more rows
…
