Combine plots using patchwork – Collin K. Berke, Ph.D.
…
# Check out cases where things don't add up
non_equal_trans <- data_google_merch |>
  group_by(transaction_id) |>
  summarise(
    purchase_revenue_in_usd = max(purchase_revenue_in_usd),
    item_revenue_in_usd = sum(item_revenue_in_usd)
  ) |>
  filter(purchase_revenue_in_usd != item_revenue_in_usd) |>
  mutate(diff = purchase_revenue_in_usd - item_revenue_in_usd)|>
  arrange(diff)

non_equal_trans

# A tibble: 599 × 4
   transaction_id purchase_revenue_in_usd item_revenue_in_usd  diff
            <dbl>                   <dbl>               <dbl> <dbl>
 1         129469                     113                 339  -226
 2         698935                     159                 318  -159
 3          43463                     128                 284  -156
 4         940161                      75                 225  -150
 5         378505                      88                 176   -88
 6         145915                      84                 166   -82
 7          22807                      83                 164   -81
 8         797936                      79                 156   -77
 9         594908                     113                 187   -74
10         589284                      71                 142   -71
# ℹ 589 more rows
…
