TIL: Separate character strings into rows and columns using tidyr functions – Collin K. Berke, Ph.D.
…
# A tibble: 2 × 2
  conferene teams                                                                                   
  <chr>     <chr>                                                                                   
1 Big Ten   Illinois, Indiana, Iowa, Maryland, Michigan, Michigan State, Minnesota, Nebraska, North…
2 Big 12    Arizona State, Iowa State, BYU, Colorado, Baylor, TCU, Texas Tech, Kansas State, West V…

In practice, this dataset isn’t really useful: having a list of teams in a character string doesn’t afford us any ability to apply other operations to the data. It would be useful if the data were in long format, where each team is on its own row, and the conference is repeated. It’s also important to recognize each team in the character string are delimited by a comma. Let’s use the separate_longer_delim() function to make it more useful. Here’s what the code looks like:

data_teams |>
  separate_longer_delim(
    cols = teams,
    delim = ", "
  )

# A tibble: 34 × 2
   conferene teams         
   <chr>     <chr>         
 1 Big Ten   Illinois      
 2 Big Ten   Indiana       
 3 Big Ten   Iowa          
 4 Big Ten   Maryland      
 5 Big Ten   Michigan      
 6 Big Ten   Michigan State
 7 Big Ten   Minnesota     
 8 Big Ten   Nebraska      
 9 Big Ten   Northwestern  
10 Big Ten   Ohio State    
# ℹ 24 more rows
…
# A tibble: 2 × 3
   year month     rain                           
  <dbl> <chr>     <chr>                          
1  2024 September NNNNNYNNNYNNNNNNYYYNYYYYNNNNNN 
2  2024 October   NNYNNNNNNNNNNNNNNNNNYNYNNNNNNYN

Again, what if we want longer data, where each day’s observation gets its own row? The character strings in the rain variable don’t really have a point of reference where to separate the string. The only point of reference we have is positionally using some type of index. In this case, we have a character string of length 1 representing whether precipitation was observed that day: “Y” = rain; “N” = no rain. While we’re at it, let’s also mutate a day column for each observation. The following code chunk demonstrates how to do this:

data_lnk_rain |>
  separate_longer_position(rain, width = 1) |>
  group_by(year, month) |>
  mutate(day = 1:n(), .before = rain)

# A tibble: 61 × 4
# Groups:   year, month [2]
    year month       day rain 
   <dbl> <chr>     <int> <chr>
 1  2024 September     1 N    
 2  2024 September     2 N    
 3  2024 September     3 N    
 4  2024 September     4 N    
 5  2024 September     5 N    
 6  2024 September     6 Y    
 7  2024 September     7 N    
 8  2024 September     8 N    
 9  2024 September     9 N    
10  2024 September    10 Y    
# ℹ 51 more rows
…
