Messing with models: k-means clustering of Google Analytics 4 data – Collin K. Berke, Ph.D.
…
$item_category
[1] FALSE

$quantity
[1] TRUE

$purchase_revenue_in_usd
[1] FALSE

No surprise: some features contain missing values. transaction_id and quantity both contain missing values. Our data wrangling step will need to address these issues. Let’s look closer and explore why missing values might be present within the data. This code can be used to do this:

# Examples with a missing `transaction_id`
data_ga_transactions |> filter(is.na(transaction_id))

# A tibble: 59 × 6
   event_date user_pseudo_id transaction_id item_category quantity purchase_revenue_in_usd
        <dbl>          <dbl> <chr>          <chr>            <dbl>                   <dbl>
 1   20201101       1494019. <NA>           New                  1                      25
 2   20201101       2422026. <NA>           New                  2                      72
 3   20201101       2422026. <NA>           Fun                  1                      72
 4   20201101      29640693. <NA>           Apparel              1                      55
 5   20201101      29640693. <NA>           Shop by Brand        2                      59
 6   20201101       3297047. <NA>           Apparel              1                      87
 7   20201101       3297047. <NA>           Apparel              1                      87
 8   20201101       3297047. <NA>           Apparel              1                      87
 9   20201101       3297047. <NA>           Apparel              1                      87
10   20201101      33027284. <NA>           Accessories          1                      63
# ℹ 49 more rows

# Examples where a `quantity` is missing
data_ga_transactions |> filter(is.na(quantity))

# A tibble: 148 × 6
   event_date user_pseudo_id transaction_id item_category quantity purchase_revenue_in_usd
        <dbl>          <dbl> <chr>          <chr>            <dbl>                   <dbl>
 1   20201217       1086663. (not set)      (not set)           NA                       0
 2   20201120      11080045. (not set)      (not set)           NA                       0
 3   20201204      12422651. (not set)      (not set)           NA                       0
 4   20201213      13309292. (not set)      (not set)           NA                       0
 5   20201126      13429550. (not set)      (not set)           NA                       0
 6   20201213       1396855. (not set)      (not set)           NA                       0
 7   20201127       1423291. (not set)      (not set)           NA                       0
 8   20201210    1540308157. (not set)      (not set)           NA                       0
 9   20201201      15915163. (not set)      (not set)           NA                       0
10   20201120      15980073. (not set)      (not set)           NA                       0
# ℹ 138 more rows
…
