Workflow walkthrough: Interacting with Google BigQuery in R – Collin K. Berke, Ph.D.
…
bq_table_fields(tbl_temp_acs)
# <bq_fields>
#   geo_id <STRING>
#   area_name <STRING>
#   total_pop <FLOAT>

data_nebpm_county <- bq_table_download(tbl_temp_acs)

data_nebpm_county
# # A tibble: 93 × 3
#    geo_id area_name        total_pop
#    <chr>  <chr>                <dbl>
#  1 31005  Arthur County          439
#  2 31085  Hayes County           889
#  3 31087  Hitchcock County      2788
#  4 31103  Keya Paha County       875
#  5 31113  Logan County           896
#  6 31115  Loup County            690
#  7 31117  McPherson County       420
#  8 31125  Nance County          3525
#  9 31133  Pawnee County         2640
# 10 31143  Polk County           5208
# # ℹ 83 more rows
# # ℹ Use `print(n = ...)` to see more rows
…
