Collin K. Berke, Ph.D. - Forecasting Series: Exploratory analysis of Google Analytics 4 data for forecasting models
…
The final exploratory analysis step is to split the series into its several components. This includes the seasonal, trend, and remainder components. Here an additive decomposition is performed. Transformations were not applied to this data before decomposition was performed.

An argument could be made to transform this time series using some mathematical operation. Indeed, transforming the series may improve forecasts generated from the data (Hyndman and Athanasopoulos 2021). However, this analysis doesn’t have access to a complete series of data. Having more data could lead to more informed decisions on the appropriate application of transformations. A full year or multiple years worth of data would be preferred. Interpretability is also a concern, as transformations would need to be converted back to the original scale once the forecast was created. Thus, it was decided that transformations were not going to be applied to the data. More about transforming the series can be referenced here.

The series was broken down into its multiple components: seasonal, trend-cycle, and remainder (Hyndman and Athanasopoulos 2021). Decomposing the series allows for more to be learned about the underlying structure of the time series. As a result, allowing for structural components of the time series that could improve forecasting models to be identified. Several functions from the {feasts} and {fabletools} packages simplified the decomposition process.

First, the trend components are calculated using the STL() and model() functions. STL() decomposes the trend. The model() function creates a mabel object of estimates. The components() function is then used to view the model object.

order_views_dcmp <- tidy_trend_wide %>% 
  model(stl = STL(order_completed_views))

components(order_views_dcmp)

# A dable: 92 x 7 [1D]
# Key:     .model [1]
# :        order_completed_views = trend + season_week + remainder
   .model event_date order_completed_views trend season_week remainder season_…¹
   <chr>  <date>                     <int> <dbl>       <dbl>     <dbl>     <dbl>
 1 stl    2020-11-01                    14  47.8      -37.6      3.80       51.6
 2 stl    2020-11-02                    73  47.9       12.9     12.2        60.1
 3 stl    2020-11-03                    69  47.9       23.1     -1.99       45.9
 4 stl    2020-11-04                    47  48.2       11.8    -13.0        35.2
 5 stl    2020-11-05                    28  48.5       -4.93   -15.5        32.9
 6 stl    2020-11-06                    62  48.7       13.0      0.285      49.0
 7 stl    2020-11-07                    34  48.9      -17.9      3.00       51.9
 8 stl    2020-11-08                    32  51.7      -37.9     18.2        69.9
 9 stl    2020-11-09                    58  54.5       12.4     -8.95       45.6
10 stl    2020-11-10                    70  56.6       22.7     -9.33       47.3
# … with 82 more rows, and abbreviated variable name ¹​season_adjust
# ℹ Use `print(n = ...)` to see more rows
…
